<svg width="27" height="19" viewBox="0 0 27 19" fill="none" xmlns="http://www.w3.org/2000/svg">
<path d="M8.35255 15.2191L2.72252 10.074C2.09517 9.50069 1.09786 9.50069 0.470509 10.074C-0.156836 10.6473 -0.156836 11.5587 0.470509 12.132L7.21046 18.2915C7.8378 18.8648 8.85121 18.8648 9.47855 18.2915L26.5295 2.72386C27.1568 2.15055 27.1568 1.23913 26.5295 0.665823C25.9021 0.0925122 24.9048 0.0925122 24.2775 0.665823L8.35255 15.2191Z" fill="#6CDE9A"/>
</svg>
